{
    "LocalDependencies": [],
    "LuaDependencies": [],
    "OtherDependencies": [
        "adt_a01.vmd"
    ],
    "timestamp": "1537394038",
    "version_info": {
        "build": 0,
        "major": 6,
        "minor": 0
    }
}